<svg width="40" height="40" viewBox="0 0 40 40" fill="none" xmlns="http://www.w3.org/2000/svg">
<g clip-path="url(#clip0_259_1101)">
<path d="M24.81 39.2801C25.12 39.5901 25.54 39.7601 25.98 39.7601H34.09C35.61 39.7601 37.05 39.1601 38.12 38.0901C39.2 37.0101 39.79 35.5801 39.79 34.0601V17.7001C39.79 15.3301 38.68 13.0501 36.8 11.6001L23.4 1.16006C21.4 -0.389941 18.38 -0.389941 16.39 1.16006L2.99 11.5901C1.11 13.0401 0 15.3301 0 17.7001V34.0601C0 35.5801 0.6 37.0201 1.67 38.0901C2.75 39.1701 4.18 39.7601 5.7 39.7601H13.82C14.25 39.7601 14.68 39.5801 14.99 39.2801C15.3 38.9701 15.48 38.5501 15.48 38.1101V25.5701H24.34V38.1101C24.34 38.5501 24.51 38.9701 24.82 39.2801H24.81ZM23.95 22.2701H15.84C14.86 22.2701 13.93 22.6501 13.24 23.3501C12.54 24.0401 12.16 24.9701 12.16 25.9501V36.4601H5.71C5.08 36.4601 4.46 36.2001 4.01 35.7601C3.56 35.3101 3.31 34.7001 3.31 34.0601V17.7001C3.31 16.3401 3.95 15.0301 5.02 14.2001L18.42 3.77006C19.26 3.12006 20.53 3.12006 21.37 3.77006L34.78 14.2001C35.86 15.0301 36.5 16.3401 36.49 17.7001V34.0501C36.49 34.6801 36.23 35.3001 35.79 35.7501C35.34 36.2001 34.73 36.4501 34.09 36.4501H27.63V25.9401C27.63 24.9601 27.25 24.0301 26.55 23.3401C25.85 22.6401 24.93 22.2601 23.95 22.2601V22.2701Z" fill="#0F1A40"/>
</g>
<defs>
<clipPath id="clip0_259_1101">
<rect width="39.8" height="39.76" fill="white"/>
</clipPath>
</defs>
</svg>
